\relax 
\catcode `"\active 
\select@language{swedish}
\@writefile{toc}{\select@language{swedish}}
\@writefile{lof}{\select@language{swedish}}
\@writefile{lot}{\select@language{swedish}}
\@writefile{toc}{\contentsline {section}{\numberline {1}Terminologi}{5}}
\@writefile{toc}{\contentsline {section}{\numberline {2}Introduktion}{6}}
\@writefile{lof}{\contentsline {figure}{\numberline {1}{\ignorespaces \textit  {Probleminstans med giltig l\IeC {\"o}sning.}}}{6}}
\newlabel{overflow}{{1}{6}}
\@writefile{toc}{\contentsline {section}{\numberline {3}Bakgrund}{7}}
\@writefile{toc}{\contentsline {subsection}{\numberline {3.1}Tidigare forskning}{7}}
\@writefile{toc}{\contentsline {subsubsection}{\numberline {3.1.1}Backtracking}{7}}
\@writefile{toc}{\contentsline {subsubsection}{\numberline {3.1.2}Villkorsprogrammering}{7}}
\@writefile{toc}{\contentsline {subsubsection}{\numberline {3.1.3}M\IeC {\"a}nskliga strategier}{8}}
\@writefile{toc}{\contentsline {subsection}{\numberline {3.2}Syfte}{8}}
\@writefile{toc}{\contentsline {subsection}{\numberline {3.3}Problemformulering}{9}}
\@writefile{toc}{\contentsline {subsubsection}{\numberline {3.3.1}Avgr\IeC {\"a}nsningar}{9}}
\@writefile{toc}{\contentsline {section}{\numberline {4}Metod}{10}}
\@writefile{toc}{\contentsline {subsection}{\numberline {4.1}Programmeringsspr\IeC {\r a}k}{10}}
\@writefile{toc}{\contentsline {subsection}{\numberline {4.2}Sudokul\IeC {\"o}sare med backtracking}{10}}
\@writefile{lof}{\contentsline {figure}{\numberline {2}{\ignorespaces \textit  {Pseudokod f\IeC {\"o}r backtracking algoritmen}}}{10}}
\newlabel{overflow}{{2}{10}}
\@writefile{toc}{\contentsline {subsection}{\numberline {4.3}Sudokul\IeC {\"o}sare med m\IeC {\"a}nskliga strategier och backtracking}{11}}
\@writefile{lof}{\contentsline {figure}{\numberline {3}{\ignorespaces \textit  {Pseudokod f\IeC {\"o}r m\IeC {\"a}nskliga strategier med backtracking}}}{11}}
\@writefile{toc}{\contentsline {subsection}{\numberline {4.4}Testdata}{12}}
\@writefile{lof}{\contentsline {figure}{\numberline {4}{\ignorespaces \textit  {Indata f\IeC {\"o}r ett Sudokupussel med 17 ledtr\IeC {\r a}dar.}}}{12}}
\newlabel{overflow}{{4}{12}}
\@writefile{toc}{\contentsline {section}{\numberline {5}Resultat}{13}}
\@writefile{toc}{\contentsline {subsection}{\numberline {5.1}Backtracking}{13}}
\@writefile{lof}{\contentsline {figure}{\numberline {5}{\ignorespaces \textit  {Genomsnittlig k\IeC {\"o}rtid per probleminstans f\IeC {\"o}r Sudokul\IeC {\"o}sare med m\IeC {\"a}nskliga strategier.}}}{13}}
\newlabel{overflow}{{5}{13}}
\@writefile{toc}{\contentsline {subsection}{\numberline {5.2}M\IeC {\"a}nskliga strategier}{13}}
\@writefile{lof}{\contentsline {figure}{\numberline {6}{\ignorespaces \textit  {Genomsnittlig k\IeC {\"o}rtid per probleminstans f\IeC {\"o}r Sudokul\IeC {\"o}sare med backtracking.}}}{13}}
\newlabel{overflow}{{6}{13}}
\@writefile{lof}{\contentsline {figure}{\numberline {7}{\ignorespaces \textit  {Genomsnittlig f\IeC {\"o}rdelning av singlar \IeC {\"o}ver 99 probleminstanser f\IeC {\"o}r varje klass.}}}{13}}
\newlabel{overflow}{{7}{13}}
\@writefile{lof}{\contentsline {figure}{\numberline {8}{\ignorespaces \textit  {Genomsnittligt antal kandidater per tom ruta efter m\IeC {\"a}nskliga strategier.}}}{14}}
\newlabel{overflow}{{8}{14}}
\@writefile{toc}{\contentsline {subsection}{\numberline {5.3}J\IeC {\"a}mf\IeC {\"o}relse av k\IeC {\"o}rtid}{14}}
\@writefile{lof}{\contentsline {figure}{\numberline {9}{\ignorespaces \textit  {K\IeC {\"o}rtider backtracking (bl\IeC {\r a}) j\IeC {\"a}mf\IeC {\"o}rt med m\IeC {\"a}nskliga strategier (gul)}}}{14}}
\newlabel{overflow}{{9}{14}}
\@writefile{lof}{\contentsline {figure}{\numberline {10}{\ignorespaces \textit  {Procentuell minskning av k\IeC {\"o}rtid med m\IeC {\"a}nskliga strategier.}}}{15}}
\newlabel{overflow}{{10}{15}}
\@writefile{toc}{\contentsline {section}{\numberline {6}Analys \& Diskussion}{16}}
\@writefile{toc}{\contentsline {subsection}{\numberline {6.1}Metodkritik}{17}}
\citation{*}
\@writefile{toc}{\contentsline {section}{\numberline {7}Slutsats}{18}}
\bibstyle{plain}
\bibdata{references}
\bibcite{crook2009pencil}{1}
\bibcite{davis2006mathematics}{2}
\bibcite{kovacs}{3}
\bibcite{mcguire2012there}{4}
\bibcite{simonis2005sudoku}{5}
\bibcite{stanford}{6}
